1.162.102.235:1080
1.162.105.224:1080
1.162.109.235:1080
1.162.111.116:1080
1.173.22.243:1080
1.179.198.185:56240
101.132.71.56:1080
101.251.254.123:1080
101.251.254.123:3080
101.6.34.41:1080
101.64.33.9:1080
101.71.249.178:1080
101.76.209.69:1080
101.89.134.159:1080
101.99.36.109:9999
103.102.72.169:40341
103.107.60.150:39977
103.107.60.157:39977
103.108.88.158:61336
103.110.36.9:57385
103.118.168.195:30073
103.16.63.57:9999
103.18.152.138:61355
103.193.19.35:9999
103.194.250.110:9999
103.198.34.164:54261
103.203.85.243:9999
103.205.26.57:32500
103.209.64.19:6667
103.21.160.156:9999
103.21.161.103:9999
103.21.161.105:6667
103.21.163.70:6667
103.21.163.76:6667
103.21.163.81:6667
103.21.163.82:6667
103.212.128.29:50239
103.212.128.75:59265
103.212.222.5:1080
103.216.82.146:6667
103.216.82.147:6667
103.216.82.153:6667
103.216.82.18:6667
103.216.82.186:6667
103.216.82.187:6667
103.216.82.19:6667
103.216.82.190:6667
103.216.82.195:6667
103.216.82.196:6667
103.216.82.198:6667
103.216.82.199:6667
103.216.82.20:6667
103.216.82.200:6667
103.216.82.203:6667
103.216.82.205:6667
103.216.82.206:6667
103.216.82.207:6667
103.216.82.208:6667
103.216.82.211:6667
103.216.82.213:6667
103.216.82.214:6667
103.216.82.216:6667
103.216.82.28:6667
103.216.82.29:6667
103.216.82.30:6667
103.216.82.37:6667
103.216.82.42:6667
103.216.82.43:6667
103.216.82.45:6667
103.216.82.46:6667
103.216.82.52:6667
103.218.189.5:45961
103.219.142.34:9999
103.221.253.182:33417
103.227.147.142:47456
103.228.35.76:6667
103.229.85.41:54364
103.233.10.98:1080
103.235.21.252:44583
103.238.109.79:9999
103.238.109.85:9999
103.238.109.91:9999
103.239.255.196:49018
103.240.160.21:6667
103.240.161.101:6667
103.240.161.107:6667
103.240.161.108:6667
103.240.161.109:6667
103.240.206.195:6667
103.243.7.55:9999
103.245.9.30:6667
103.246.147.50:9999
103.250.148.82:6667
103.250.157.39:6667
103.250.157.43:6667
103.250.158.21:6667
103.250.166.12:6667
103.250.166.17:6667
103.250.166.4:6667
103.250.39.66:43220
103.250.73.228:9050
103.251.225.13:9999
103.253.113.137:9999
103.253.181.130:9999
103.253.182.203:9999
103.254.64.203:1080
103.27.109.17:1080
103.46.128.41:11733
103.46.128.41:20880
103.46.128.41:24413
103.46.128.41:57638
103.46.128.47:13900
103.46.128.47:22937
103.46.128.47:26284
103.46.128.47:28993
103.46.128.47:40837
103.46.128.47:44350
103.46.128.47:52256
103.46.128.49:47632
103.58.250.210:9999
103.70.4.150:1080
103.70.4.81:1080
103.78.250.2:9999
103.85.92.132:1080
103.87.48.27:9999
103.92.153.163:9999
103.99.196.114:9999
104.207.144.248:10000
104.236.76.45:443
104.248.113.226:2018
104.248.114.215:2018
104.248.19.22:8080
105.234.156.81:9999
105.235.205.250:9999
106.120.13.71:1081
106.14.37.233:1080
106.3.210.11:9999
106.3.210.39:9999
106.3.210.87:9999
106.3.210.91:9999
106.3.213.109:9999
106.3.213.129:9999
106.3.213.154:9999
106.3.213.158:9999
106.3.213.178:9999
106.3.213.201:9999
106.3.213.50:9999
106.3.213.56:9999
106.3.213.67:9999
106.3.213.85:9999
107.170.254.167:11989
107.170.254.167:17418
107.170.254.167:28022
107.170.254.167:30298
107.170.254.167:31520
107.170.254.167:3463
107.170.254.167:39804
107.170.254.167:4132
107.170.254.167:4160
107.170.254.167:43552
107.170.254.167:50029
107.170.254.167:5502
107.170.254.167:57449
107.170.254.167:8442
107.170.42.147:34177
107.170.61.41:56952
107.170.7.132:12517
107.170.7.132:2091
107.170.7.132:47810
108.170.109.186:28357
108.170.109.186:38806
108.61.162.183:1080
109.104.79.203:14541
109.124.110.2:9999
109.160.53.196:47870
109.175.29.7:51372
109.200.132.151:8888
109.200.132.161:8888
109.224.34.226:9999
109.224.36.172:9999
109.224.55.18:9999
109.226.205.145:9999
109.69.1.105:9999
109.72.103.146:9999
110.232.76.212:9999
110.235.196.85:9999
110.34.3.193:9999
110.44.126.132:39416
110.74.219.186:14153
110.93.13.163:49384
110.93.248.178:9999
111.231.196.60:1080
111.253.73.153:1080
111.253.73.193:1080
111.253.73.35:1080
111.253.75.41:1080
111.253.76.229:1080
111.90.185.70:61667
112.133.215.138:9999
112.218.231.43:1080
112.225.78.181:1080
112.74.23.194:1080
112.83.201.223:9999
113.109.79.137:1080
114.214.198.152:1080
114.24.79.105:1080
114.26.159.44:1080
114.31.240.55:1080
114.33.10.163:30002
114.33.10.163:30003
114.33.10.163:30006
114.33.10.163:30022
114.33.10.163:30024
114.33.10.163:30028
114.33.10.163:30031
114.33.10.163:30033
114.33.10.163:30034
114.33.10.163:30035
114.33.10.163:30036
114.33.10.163:30041
114.33.10.163:30045
114.33.10.163:30048
114.33.10.163:30053
114.33.10.164:30002
114.33.10.164:30003
114.33.10.164:30031
114.33.10.164:30036
114.33.10.164:30041
114.33.10.164:30045
114.34.206.45:9999
114.35.116.158:9999
114.43.182.63:1080
114.43.29.242:1080
114.46.32.209:1080
114.55.125.0:1080
114.55.63.81:1080
114.69.238.10:9999
115.134.236.64:1080
115.154.50.39:1080
115.178.25.126:38688
115.197.156.194:1080
115.248.253.41:9999
115.248.254.73:9999
115.79.11.174:9999
116.225.38.49:1080
116.4.96.109:1080
116.58.94.162:9999
116.62.191.141:1080
117.174.192.100:1080
117.239.48.58:9999
117.242.39.23:9999
118.139.176.242:1197
118.139.178.67:49457
118.160.0.24:1080
118.160.1.220:1080
118.163.161.97:1616
118.166.113.98:1080
118.169.230.233:1080
118.170.151.19:1080
118.190.147.88:9999
118.193.164.28:1080
118.24.92.193:1080
118.31.46.191:9999
119.145.136.126:9999
119.15.90.75:9999
119.18.149.123:9999
119.252.170.42:9999
119.254.94.97:9999
119.28.191.18:7070
119.28.235.169:1080
119.40.95.122:9999
119.5.0.21:22
12.1.69.228:9999
12.189.124.100:53031
12.189.124.50:9999
12.189.124.55:9999
120.26.136.200:1080
120.39.69.216:1080
120.79.208.174:1080
121.12.92.111:3000
121.12.92.124:3000
121.12.92.126:3000
121.12.92.17:3000
121.12.92.45:3000
121.12.92.55:3000
121.12.92.57:3000
121.12.92.59:3000
121.12.92.62:3000
121.12.92.69:3000
121.12.92.73:3000
121.12.92.93:3000
121.12.92.95:3000
121.12.92.97:3000
121.12.92.99:3000
121.46.84.182:9999
121.58.199.244:9999
122.116.161.100:30124
122.116.161.82:30124
122.116.161.82:30198
122.116.73.240:9999
122.118.213.87:1080
123.110.185.95:9999
123.205.183.100:9999
123.206.216.204:1080
123.249.17.160:9999
123.249.17.17:9999
123.249.17.180:9999
123.249.17.209:9999
123.249.17.216:9999
123.249.17.217:9999
123.249.17.231:9999
123.249.17.233:9999
123.249.17.239:9999
123.249.17.243:9999
123.249.17.25:9999
123.249.17.33:9999
123.249.17.40:9999
123.249.17.46:9999
123.249.17.64:9999
123.249.17.9:9999
123.249.84.254:9999
123.249.84.7:9999
123.249.85.143:9999
123.249.87.72:9999
123.249.87.82:9999
123.249.92.100:9999
123.249.92.101:9999
123.249.92.105:9999
123.249.92.107:9999
123.249.92.111:9999
123.249.92.115:9999
123.249.92.123:9999
123.249.92.124:9999
123.249.92.126:9999
123.249.92.129:9999
123.249.92.13:9999
123.249.92.133:9999
123.249.92.138:9999
123.249.92.14:9999
123.249.92.140:9999
123.249.92.142:9999
123.249.92.147:9999
123.249.92.150:9999
123.249.92.152:9999
123.249.92.159:9999
123.249.92.160:9999
123.249.92.162:9999
123.249.92.170:9999
123.249.92.173:9999
123.249.92.174:9999
123.249.92.180:9999
123.249.92.182:9999
123.249.92.183:9999
123.249.92.195:9999
123.249.92.196:9999
123.249.92.197:9999
123.249.92.199:9999
123.249.92.200:9999
123.249.92.205:9999
123.249.92.209:9999
123.249.92.214:9999
123.249.92.216:9999
123.249.92.218:9999
123.249.92.22:9999
123.249.92.227:9999
123.249.92.23:9999
123.249.92.232:9999
123.249.92.234:9999
123.249.92.236:9999
123.249.92.240:9999
123.249.92.242:9999
123.249.92.243:9999
123.249.92.248:9999
123.249.92.249:9999
123.249.92.250:9999
123.249.92.251:9999
123.249.92.28:9999
123.249.92.29:9999
123.249.92.30:9999
123.249.92.4:9999
123.249.92.42:9999
123.249.92.43:9999
123.249.92.44:9999
123.249.92.47:9999
123.249.92.52:9999
123.249.92.6:9999
123.249.92.65:9999
123.249.92.75:9999
123.249.92.76:9999
123.249.92.77:9999
123.249.92.80:9999
123.249.92.83:9999
123.249.92.84:9999
123.249.92.85:9999
123.249.92.89:9999
123.249.92.90:9999
123.249.92.97:9999
123.249.92.98:9999
123.249.93.101:9999
123.249.93.103:9999
123.249.93.104:9999
123.249.93.112:9999
123.249.93.115:9999
123.249.93.118:9999
123.249.93.119:9999
123.249.93.13:9999
123.249.93.132:9999
123.249.93.134:9999
123.249.93.136:9999
123.249.93.137:9999
123.249.93.138:9999
123.249.93.140:9999
123.249.93.141:9999
123.249.93.144:9999
123.249.93.152:9999
123.249.93.155:9999
123.249.93.159:9999
123.249.93.161:9999
123.249.93.163:9999
123.249.93.167:9999
123.249.93.169:9999
123.249.93.171:9999
123.249.93.172:9999
123.249.93.173:9999
123.249.93.174:9999
123.249.93.184:9999
123.249.93.186:9999
123.249.93.187:9999
123.249.93.19:9999
123.249.93.192:9999
123.249.93.195:9999
123.249.93.198:9999
123.249.93.2:9999
123.249.93.200:9999
123.249.93.208:9999
123.249.93.220:9999
123.249.93.223:9999
123.249.93.228:9999
123.249.93.230:9999
123.249.93.238:9999
123.249.93.242:9999
123.249.93.243:9999
123.249.93.248:9999
123.249.93.249:9999
123.249.93.25:9999
123.249.93.254:9999
123.249.93.28:9999
123.249.93.3:9999
123.249.93.38:9999
123.249.93.4:9999
123.249.93.45:9999
123.249.93.46:9999
123.249.93.49:9999
123.249.93.53:9999
123.249.93.56:9999
123.249.93.63:9999
123.249.93.68:9999
123.249.93.69:9999
123.249.93.7:9999
123.249.93.70:9999
123.249.93.94:9999
123.249.93.95:9999
123.249.94.103:9999
123.249.94.105:9999
123.249.94.108:9999
123.249.94.109:9999
123.249.94.11:9999
123.249.94.111:9999
123.249.94.117:9999
123.249.94.120:9999
123.249.94.122:9999
123.249.94.124:9999
123.249.94.126:9999
123.249.94.140:9999
123.249.94.141:9999
123.249.94.142:9999
123.249.94.144:9999
123.249.94.154:9999
123.249.94.157:9999
123.249.94.160:9999
123.249.94.162:9999
123.249.94.164:9999
123.249.94.166:9999
123.249.94.169:9999
123.249.94.175:9999
123.249.94.176:9999
123.249.94.179:9999
123.249.94.180:9999
123.249.94.181:9999
123.249.94.187:9999
123.249.94.190:9999
123.249.94.192:9999
123.249.94.197:9999
123.249.94.203:9999
123.249.94.204:9999
123.249.94.206:9999
123.249.94.209:9999
123.249.94.21:9999
123.249.94.212:9999
123.249.94.214:9999
123.249.94.216:9999
123.249.94.218:9999
123.249.94.222:9999
123.249.94.225:9999
123.249.94.230:9999
123.249.94.233:9999
123.249.94.234:9999
123.249.94.235:9999
123.249.94.236:9999
123.249.94.237:9999
123.249.94.24:9999
123.249.94.244:9999
123.249.94.246:9999
123.249.94.25:9999
123.249.94.250:9999
123.249.94.30:9999
123.249.94.33:9999
123.249.94.40:9999
123.249.94.45:9999
123.249.94.47:9999
123.249.94.48:9999
123.249.94.55:9999
123.249.94.58:9999
123.249.94.62:9999
123.249.94.64:9999
123.249.94.66:9999
123.249.94.69:9999
123.249.94.7:9999
123.249.94.71:9999
123.249.94.72:9999
123.249.94.75:9999
123.249.94.77:9999
123.249.94.78:9999
123.249.94.80:9999
123.249.94.82:9999
123.249.94.91:9999
123.249.94.92:9999
123.249.94.94:9999
123.249.94.97:9999
123.249.95.109:9999
123.249.95.11:9999
123.249.95.118:9999
123.249.95.123:9999
123.249.95.127:9999
123.249.95.129:9999
123.249.95.130:9999
123.249.95.131:9999
123.249.95.133:9999
123.249.95.140:9999
123.249.95.141:9999
123.249.95.144:9999
123.249.95.145:9999
123.249.95.149:9999
123.249.95.15:9999
123.249.95.159:9999
123.249.95.16:9999
123.249.95.161:9999
123.249.95.163:9999
123.249.95.164:9999
123.249.95.166:9999
123.249.95.169:9999
123.249.95.171:9999
123.249.95.177:9999
123.249.95.178:9999
123.249.95.18:9999
123.249.95.181:9999
123.249.95.183:9999
123.249.95.184:9999
123.249.95.186:9999
123.249.95.19:9999
123.249.95.193:9999
123.249.95.194:9999
123.249.95.195:9999
123.249.95.20:9999
123.249.95.200:9999
123.249.95.205:9999
123.249.95.208:9999
123.249.95.209:9999
123.249.95.21:9999
123.249.95.210:9999
123.249.95.212:9999
123.249.95.215:9999
123.249.95.217:9999
123.249.95.22:9999
123.249.95.220:9999
123.249.95.223:9999
123.249.95.225:9999
123.249.95.226:9999
123.249.95.227:9999
123.249.95.228:9999
123.249.95.235:9999
123.249.95.236:9999
123.249.95.237:9999
123.249.95.239:9999
123.249.95.24:9999
123.249.95.245:9999
123.249.95.247:9999
123.249.95.252:9999
123.249.95.27:9999
123.249.95.29:9999
123.249.95.31:9999
123.249.95.36:9999
123.249.95.37:9999
123.249.95.40:9999
123.249.95.48:9999
123.249.95.56:9999
123.249.95.58:9999
123.249.95.61:9999
123.249.95.64:9999
123.249.95.66:9999
123.249.95.68:9999
123.249.95.7:9999
123.249.95.70:9999
123.249.95.71:9999
123.249.95.73:9999
123.249.95.74:9999
123.249.95.76:9999
123.249.95.77:9999
123.249.95.81:9999
123.249.95.83:9999
123.249.95.84:9999
123.249.95.85:9999
123.249.95.87:9999
123.249.95.92:9999
123.249.95.93:9999
123.249.95.95:9999
123.249.95.98:9999
123.51.107.246:9999
123.58.43.48:1080
123.58.54.27:1080
123.58.55.162:1080
123.59.210.220:1080
124.109.22.166:9999
124.11.169.9:1080
124.11.170.8:1080
124.11.173.137:1080
124.11.174.251:1080
124.11.174.9:1080
124.16.112.57:1080
125.141.39.71:1080
125.209.127.30:9999
125.227.69.217:3351
125.227.69.217:3366
125.227.69.217:3374
125.227.69.220:3251
125.227.69.220:3261
125.227.69.220:3262
125.227.69.220:3264
125.227.69.220:3265
125.227.69.220:3346
125.227.69.220:3347
125.227.69.220:3348
125.230.220.186:1080
125.26.6.38:14153
125.26.99.203:41422
128.199.208.93:32936
128.199.208.93:36381
128.199.208.93:36612
128.199.208.93:37628
128.199.208.93:41666
128.199.208.93:43200
128.199.208.93:44851
128.199.208.93:47204
128.199.208.93:47313
128.199.208.93:48703
128.199.208.93:50362
128.199.208.93:57676
128.199.208.93:58549
128.199.36.126:1080
13.125.237.87:1080
13.231.222.223:9999
131.196.141.144:50489
131.196.192.6:9999
132.148.1.20:31680
132.148.1.20:50174
132.148.129.183:33814
132.148.13.162:50174
132.148.13.227:6575
132.148.130.208:10586
132.148.130.208:1859
132.148.130.208:19614
132.148.130.208:19880
132.148.130.208:34398
132.148.130.208:4509
132.148.130.208:49380
132.148.130.208:60034
132.148.130.208:64997
132.148.130.46:28203
132.148.130.46:2887
132.148.130.46:4257
132.148.130.46:9094
132.232.2.181:1080
134.249.61.92:39880
136.243.43.126:9999
137.27.12.26:9999
138.117.39.212:9999
138.122.51.218:9999
138.68.143.47:13338
138.68.154.7:10080
138.68.59.157:1210
138.68.67.164:1081
139.159.246.33:1080
139.162.116.34:10080
139.224.136.147:59341
139.224.232.156:1080
139.255.116.122:9999
139.255.76.34:9999
139.5.27.11:9999
139.59.53.67:24556
139.59.60.144:24556
14.102.152.138:9999
14.102.44.140:9999
14.102.80.135:9999
14.118.135.10:1080
140.113.66.19:9050
140.143.228.37:1080
140.207.147.69:9999
140.82.47.218:9999
141.105.154.56:47894
142.169.145.97:9999
142.93.107.176:1080
143.255.52.46:61159
145.239.33.106:1080
145.239.93.148:1080
148.244.71.30:9999
149.154.135.6:9999
149.249.0.210:1080
149.28.156.177:1080
149.28.74.106:1080
149.56.1.50:9999
149.56.65.157:45121
149.56.65.157:46587
149.56.65.157:46684
149.56.65.157:54446
149.56.65.157:59496
150.107.243.28:9999
150.107.30.95:9999
150.109.104.112:1080
150.109.105.160:1180
150.109.205.46:1080
150.129.114.194:6667
150.129.115.118:9999
150.129.151.42:6667
150.129.151.62:6667
150.129.171.115:6667
150.129.201.30:6667
150.129.48.138:9999
150.129.48.139:9999
150.129.52.74:6667
150.129.54.102:6667
150.242.252.136:9999
150.95.198.189:9999
151.252.107.69:9999
152.74.58.247:9999
154.126.233.42:9999
154.66.211.105:46330
154.72.75.56:9999
154.72.75.98:9999
154.72.79.37:9999
154.73.65.150:60183
154.73.66.38:9999
154.79.241.166:9999
154.79.244.10:9999
155.93.122.186:9999
157.119.207.10:6667
157.119.207.13:6667
157.119.207.36:6667
157.119.207.98:6667
157.119.215.126:9999
157.25.77.110:9999
158.255.197.199:9999
158.46.255.118:9999
158.69.243.148:9999
159.203.13.132:1080
159.203.239.143:10080
159.224.234.221:9999
159.224.244.6:9999
159.89.114.227:3130
160.119.153.160:9999
162.144.105.152:2789
162.144.115.31:49278
162.144.122.225:59926
162.144.126.204:8133
162.144.130.8:9706
162.144.133.40:29511
162.144.134.33:29511
162.144.151.7:29511
162.144.152.214:11268
162.144.154.30:30591
162.144.156.127:45230
162.144.157.106:8133
162.144.157.23:8133
162.144.196.176:3003
162.144.197.222:10380
162.144.202.200:29511
162.144.204.233:45230
162.144.212.233:8376
162.144.223.31:1905
162.144.33.23:29511
162.144.37.98:30557
162.144.37.98:59222
162.144.44.6:54119
162.144.48.247:11268
162.144.50.34:11268
162.144.52.33:29511
162.144.52.85:54119
162.144.58.218:57721
162.144.59.46:51148
162.144.61.235:11268
162.144.63.148:30591
162.144.67.158:63041
162.144.67.170:9363
162.144.68.188:8444
162.144.68.41:6935
162.144.71.134:1579
162.144.82.8:15828
162.144.82.8:29511
162.242.152.7:10080
162.243.132.149:4570
162.243.159.103:7324
162.243.161.178:38001
162.243.161.178:54422
162.243.167.19:2018
162.243.186.108:17784
162.243.186.108:54837
162.243.210.52:35288
162.243.234.164:5464
162.243.25.182:37167
162.243.251.125:29320
162.243.251.125:52204
162.243.7.181:4036
162.243.7.181:55640
162.244.35.50:9074
163.47.33.66:35708
163.53.196.246:9999
163.53.209.6:6667
163.53.209.7:6667
163.53.209.8:6667
165.227.139.133:1080
165.227.20.194:9050
165.227.52.169:2018
165.90.15.43:9999
165.98.96.126:9999
166.62.39.74:8444
166.62.85.232:1933
166.62.85.232:64912
167.249.136.9:1080
167.99.203.184:1080
167.99.60.124:9050
167.99.60.252:9050
167.99.89.72:1080
168.103.143.97:38543
168.205.24.3:6667
168.235.109.204:3264
168.235.109.207:3182
168.235.109.207:3184
168.235.109.207:3191
168.235.109.207:3197
168.235.109.207:3205
168.235.109.207:3226
168.235.109.207:3227
168.235.109.207:3230
168.235.109.207:3233
168.235.109.207:3234
168.235.109.207:3239
168.235.109.207:3243
168.235.109.207:3245
168.235.109.207:3251
168.235.109.207:3253
168.235.109.207:3254
168.235.109.207:3261
168.235.109.207:3264
168.235.109.207:3265
168.235.109.207:3266
168.235.109.207:3267
168.235.109.207:3269
168.235.109.207:3276
168.235.109.207:3277
168.235.109.207:3281
168.235.109.207:3283
168.235.109.207:3284
168.235.109.207:3285
168.235.109.207:3286
168.235.109.207:3288
168.235.109.207:3289
168.235.109.207:3290
168.235.109.207:3292
168.235.109.207:3294
168.235.109.207:3296
168.235.109.207:3299
168.235.109.207:3300
168.235.109.207:3302
168.235.109.208:3234
168.235.109.208:3239
168.235.109.208:3290
170.83.228.21:6667
171.208.222.214:1080
172.254.165.131:9999
173.245.239.12:17145
173.245.239.177:16964
173.245.239.223:1080
173.248.9.76:39880
173.254.227.89:45969
173.254.242.5:63303
174.0.79.91:9999
174.138.114.252:3130
174.138.44.242:9050
174.70.241.14:24392
174.70.241.18:24404
174.70.241.27:24413
174.70.241.7:24385
174.70.241.8:24398
174.75.238.68:16399
174.75.238.76:16391
174.75.238.82:1080
174.75.238.82:16409
174.75.238.87:16412
174.75.238.93:16406
174.76.35.29:36177
175.100.21.8:9999
175.155.75.242:9999
175.184.232.62:6667
175.184.232.62:9999
176.109.123.18:9999
176.110.151.93:9999
176.118.131.136:6667
176.192.113.150:9999
176.42.6.71:1080
176.56.93.123:30803
176.74.141.40:9999
176.9.107.105:10080
176.9.150.230:10080
176.94.2.84:1080
176.98.76.199:9999
177.105.232.182:9999
177.126.89.72:6667
177.130.244.33:9999
177.131.12.251:9999
177.131.12.252:9999
177.32.96.88:59341
177.53.59.93:9999
177.54.195.147:39601
177.84.222.37:6667
177.87.14.126:9999
177.94.246.248:9999
178.128.19.81:8181
178.128.192.125:9050
178.140.47.6:1080
178.151.241.122:2140
178.165.119.223:9999
178.188.220.206:9999
178.212.176.82:1080
178.219.248.164:9999
178.237.177.31:52638
178.254.37.3:10080
178.32.142.155:49756
178.62.193.217:3130
178.62.250.186:9050
178.62.63.229:33432
178.62.63.229:34811
178.62.63.229:35138
178.91.80.234:1080
180.153.242.221:1071
180.169.186.155:1080
180.211.101.218:59341
180.233.123.43:9999
180.234.215.82:9999
180.250.165.200:1080
180.94.80.11:9999
181.111.164.10:9999
181.112.40.114:9999
181.112.53.114:9999
181.118.177.97:39178
181.143.228.106:9999
181.168.0.45:54226
181.196.204.74:40692
181.209.82.154:9999
181.56.9.161:8080
182.163.111.150:9999
182.18.57.27:1080
182.254.145.163:26222
182.48.67.241:1080
182.61.22.197:1080
182.71.171.13:1080
182.74.103.193:9999
183.129.242.126:1080
183.134.211.27:1080
183.182.88.158:9999
183.230.145.112:9999
183.6.120.25:1080
184.105.248.230:44132
184.176.166.8:1080
184.176.166.8:17864
184.178.172.13:15311
184.178.172.18:1080
184.178.172.18:15280
184.178.172.25:15291
184.178.172.28:15294
184.178.172.5:15303
184.185.2.146:47659
185.108.215.239:9999
185.108.76.37:9050
185.160.60.160:9999
185.160.60.177:34346
185.165.173.190:39880
185.171.112.99:9999
185.171.89.156:1080
185.200.183.155:59341
185.205.236.190:59341
185.205.250.127:9999
185.216.140.229:8975
185.28.249.126:48492
185.38.216.122:9999
185.40.31.136:1080
185.43.110.132:9999
185.49.87.71:1080
185.67.93.194:1080
185.81.43.108:1080
185.81.96.184:1080
185.85.152.103:1080
185.89.90.46:9999
185.91.190.90:9999
186.150.97.113:9999
186.178.10.20:9999
186.208.65.27:9999
186.225.149.170:9999
186.233.97.163:9999
186.249.20.82:9999
187.176.123.155:9999
187.45.123.110:9999
187.62.195.43:9999
188.0.135.71:9999
188.0.138.150:9999
188.112.142.182:9999
188.120.253.33:10080
188.165.222.158:8020
188.166.33.15:9050
188.191.33.34:39880
188.235.104.180:9999
188.235.128.166:9999
188.241.79.29:9999
188.3.102.180:1080
189.61.85.165:9999
190.121.129.122:9999
190.128.172.194:9999
190.152.222.174:9999
190.152.37.142:9999
190.152.37.90:9999
190.152.6.130:9999
190.181.140.78:9999
190.192.86.33:45801
190.193.8.28:9999
190.214.20.10:9999
190.214.21.62:9999
190.214.24.214:51610
190.214.24.74:9999
190.214.47.86:9999
190.214.51.210:9999
190.47.167.31:9999
190.52.177.128:9999
190.52.183.167:9999
190.52.80.10:9999
190.6.196.118:9999
190.61.33.156:9999
190.63.154.227:9999
190.85.45.42:9999
191.6.132.77:9999
191.89.109.184:9999
191.97.53.22:59341
192.140.114.26:4153
192.144.173.114:1080
192.157.241.100:54321
192.163.223.75:47931
192.169.136.149:12511
192.169.136.149:19375
192.169.136.149:2111
192.169.136.149:29601
192.169.136.149:32652
192.169.136.149:40125
192.169.136.149:49227
192.169.136.149:5421
192.169.136.149:54427
192.169.136.151:12511
192.169.136.151:19375
192.169.136.151:2111
192.169.136.151:29601
192.169.136.151:31667
192.169.136.151:32652
192.169.136.151:40125
192.169.136.151:48140
192.169.136.151:49227
192.169.136.151:5421
192.169.136.232:11276
192.169.136.232:39872
192.169.138.184:64876
192.169.140.100:10188
192.169.140.100:14054
192.169.140.100:16948
192.169.140.100:2160
192.169.140.100:28003
192.169.140.100:30333
192.169.140.100:32971
192.169.140.100:34124
192.169.140.100:35803
192.169.140.100:36532
192.169.140.100:36650
192.169.140.100:47032
192.169.140.100:56311
192.169.140.100:60588
192.169.140.74:3279
192.169.140.74:59454
192.169.142.205:25887
192.169.142.205:54277
192.169.142.205:61488
192.169.156.211:40411
192.169.180.124:64208
192.169.180.124:6489
192.169.182.200:39555
192.169.188.105:63755
192.169.189.215:39737
192.169.189.215:63755
192.169.193.183:10603
192.169.193.183:2126
192.169.193.183:24122
192.169.193.54:42411
192.169.194.120:10603
192.169.194.120:2126
192.169.202.104:12731
192.169.202.104:14306
192.169.202.104:16850
192.169.202.104:18108
192.169.202.104:18748
192.169.202.104:20387
192.169.202.104:23729
192.169.202.104:23974
192.169.202.104:31233
192.169.202.104:31963
192.169.202.104:32991
192.169.202.104:35766
192.169.202.104:36198
192.169.202.104:37070
192.169.202.104:38542
192.169.202.104:38560
192.169.202.104:47966
192.169.202.104:48504
192.169.202.104:49162
192.169.202.104:49564
192.169.202.104:49574
192.169.202.104:50749
192.169.202.104:5300
192.169.202.104:55538
192.169.202.104:62224
192.169.202.104:64151
192.169.202.104:6509
192.169.216.182:35394
192.169.217.40:17187
192.169.217.40:20012
192.169.217.40:35968
192.169.218.61:24767
192.169.224.196:13490
192.169.224.196:1854
192.169.224.196:19291
192.169.224.196:31894
192.169.224.196:32449
192.169.224.196:32525
192.169.224.196:43662
192.169.224.196:4924
192.169.224.196:5876
192.169.232.12:38842
192.169.232.12:56144
192.169.233.11:11154
192.169.233.11:11464
192.169.233.11:12029
192.169.233.11:1311
192.169.233.11:14990
192.169.233.11:19335
192.169.233.11:19656
192.169.233.11:20623
192.169.233.11:20853
192.169.233.11:21718
192.169.233.11:22906
192.169.233.11:22965
192.169.233.11:24494
192.169.233.11:24666
192.169.233.11:26002
192.169.233.11:26085
192.169.233.11:26739
192.169.233.11:27406
192.169.233.11:27672
192.169.233.11:28711
192.169.233.11:29441
192.169.233.11:29613
192.169.233.11:32296
192.169.233.11:32573
192.169.233.11:33150
192.169.233.11:35842
192.169.233.11:36184
192.169.233.11:36604
192.169.233.11:37190
192.169.233.11:37196
192.169.233.11:3738
192.169.233.11:37555
192.169.233.11:39674
192.169.233.11:39706
192.169.233.11:39920
192.169.233.11:39937
192.169.233.11:40662
192.169.233.11:40675
192.169.233.11:41101
192.169.233.11:42069
192.169.233.11:43345
192.169.233.11:43622
192.169.233.11:44171
192.169.233.11:45264
192.169.233.11:46074
192.169.233.11:46095
192.169.233.11:46913
192.169.233.11:47481
192.169.233.11:47603
192.169.233.11:47784
192.169.233.11:48801
192.169.233.11:4989
192.169.233.11:50154
192.169.233.11:50556
192.169.233.11:50755
192.169.233.11:51334
192.169.233.11:51780
192.169.233.11:52243
192.169.233.11:52295
192.169.233.11:52352
192.169.233.11:52647
192.169.233.11:52693
192.169.233.11:53249
192.169.233.11:53296
192.169.233.11:54994
192.169.233.11:5652
192.169.233.11:57416
192.169.233.11:5894
192.169.233.11:59589
192.169.233.11:60323
192.169.233.11:7723
192.169.233.158:13096
192.169.233.35:50174
192.169.237.123:25193
192.169.244.29:1854
192.169.244.29:31894
192.169.244.29:32449
192.169.244.29:32525
192.169.244.29:3663
192.169.244.29:40674
192.169.244.29:43172
192.169.244.29:51513
192.169.249.47:10080
192.241.187.83:31650
192.249.53.244:64312
192.30.85.225:9999
192.99.54.185:34624
192.99.54.185:41556
192.99.54.185:51028
193.112.122.169:1080
193.112.208.64:1080
193.188.254.194:45390
193.238.111.118:52324
193.41.175.53:50353
193.93.48.120:9999
194.105.25.25:9999
194.147.24.8:46069
194.187.149.233:9999
194.63.141.141:51978
194.63.141.141:59245
194.63.141.141:59705
194.67.167.234:9999
195.128.118.6:9999
195.13.161.141:9999
195.138.73.193:9999
195.158.88.220:9999
195.175.66.118:9999
195.189.17.36:9999
195.191.33.155:9999
195.201.36.98:1080
195.222.105.105:9999
195.222.105.106:9999
195.66.157.22:9999
195.88.73.161:60153
195.9.128.146:9999
195.9.133.22:9999
195.9.192.52:9999
196.0.109.146:9999
196.11.90.193:9999
196.192.142.33:9999
196.192.185.142:9999
196.202.194.44:9999
196.41.45.166:9999
196.50.71.239:33838
197.210.138.69:9999
197.221.130.186:9999
197.232.63.200:9999
197.234.117.126:9999
197.248.151.50:9999
198.12.151.247:11753
198.12.151.247:33479
198.12.157.28:11753
198.12.157.31:6477
198.12.157.77:11322
198.12.157.77:18278
198.12.157.77:2126
198.12.157.77:23429
198.12.157.77:40117
198.12.157.77:42830
198.12.157.77:43342
198.23.201.246:30010
198.47.55.159:1080
2.35.135.27:21598
200.150.127.242:9999
200.152.78.48:9999
200.171.186.184:61100
200.199.114.236:9999
200.207.220.26:9999
200.223.17.130:9999
200.29.238.71:9999
200.30.170.142:9999
200.35.161.57:9999
200.58.151.146:9999
200.58.223.146:9999
200.69.232.24:9999
200.76.121.100:9999
200.76.121.30:9999
201.184.236.34:9999
201.184.243.226:9999
201.184.243.227:9999
201.184.243.228:9999
201.222.55.34:9999
202.104.101.27:1080
202.126.122.74:9999
202.126.122.83:9999
202.131.229.98:9999
202.131.232.146:9999
202.53.79.17:9999
202.57.45.42:30637
202.62.227.168:9999
202.62.227.41:9999
202.63.243.236:9999
202.78.199.26:9999
202.95.136.134:9999
203.128.17.249:9999
203.145.179.170:9999
203.169.24.243:1080
203.189.142.74:9999
203.202.243.210:9999
203.83.162.242:9999
203.84.152.37:9999
203.99.116.121:9999
203.99.117.162:9999
203.99.121.2:9999
203.99.121.26:9999
204.42.255.250:13264
205.186.160.245:10080
206.189.0.138:1080
206.189.101.248:1080
206.189.102.46:1080
206.189.15.140:1080
206.189.8.85:1080
206.225.138.221:6144
206.225.138.221:7936
206.248.12.47:39880
206.248.184.127:9050
207.148.30.112:9050
207.148.77.4:9050
207.154.251.244:1080
207.183.166.167:39880
207.188.69.45:9999
207.200.138.35:9999
207.98.171.42:9999
208.102.51.6:58208
208.113.181.50:63722
208.113.183.100:27239
208.113.193.44:23511
208.75.19.142:9999
208.97.31.13:1080
208.97.31.229:53124
209.198.58.193:64312
209.240.109.238:9050
209.29.234.121:9999
209.33.198.133:9999
210.123.161.218:1080
210.212.147.11:1080
210.245.32.113:35161
210.77.91.16:1080
211.26.76.174:9999
212.174.56.106:9999
212.5.114.12:9999
212.50.49.22:9999
212.96.56.164:9999
213.108.73.98:44385
213.154.21.183:9999
213.163.153.237:39880
213.200.56.86:60830
213.230.96.34:9999
213.231.5.33:42272
213.32.72.118:1080
213.6.149.2:9999
213.6.67.62:61221
213.74.117.171:9999
213.87.202.19:9999
213.87.42.33:9999
213.91.221.33:9999
213.91.235.134:9999
213.91.235.82:9999
216.126.212.231:9999
216.144.228.130:15378
216.144.230.233:15993
216.176.143.240:9999
216.187.82.76:1922
216.21.200.120:10200
216.57.167.11:9999
217.10.204.238:1080
217.112.138.163:9999
217.12.254.6:9999
217.182.10.127:8080
217.196.21.170:9999
217.8.227.22:9999
218.187.112.162:1080
218.187.112.247:1080
218.187.112.57:1080
218.187.116.193:1080
218.187.119.174:1080
218.187.120.132:1080
218.187.120.165:1080
218.187.120.233:1080
218.187.122.73:1080
218.187.123.197:1080
218.187.126.148:1080
218.187.126.85:1080
218.202.233.178:10002
218.203.158.42:1080
218.215.70.212:9999
218.248.73.193:1080
219.255.26.114:1080
219.84.180.154:1080
219.87.80.81:9999
219.91.142.237:9999
220.133.88.130:30057
220.136.0.83:1080
220.136.15.202:1080
220.136.3.108:1080
220.136.3.82:1080
220.136.4.3:1080
220.136.5.249:1080
220.136.6.212:1080
220.136.7.19:1080
220.79.34.109:2018
221.132.35.5:2214
221.178.172.118:9999
221.239.56.246:1080
222.107.129.233:8080
222.129.17.142:1080
222.165.225.245:27802
222.186.45.116:51982
222.186.45.65:59375
222.242.104.54:1080
223.100.19.236:6666
223.247.130.60:1080
23.247.25.111:9999
23.25.141.13:64312
24.139.244.238:9999
24.143.237.186:2048
24.143.237.186:28928
24.227.184.162:1080
24.232.162.170:9999
24.249.199.14:57335
24.52.170.12:64312
27.113.255.154:1080
27.254.216.7:1080
27.54.189.170:9999
31.13.224.12:9999
31.13.224.9:9999
31.145.138.104:9999
31.145.94.86:9999
31.146.150.150:9999
31.173.122.131:9999
31.179.192.30:39880
31.186.61.79:9999
31.216.38.139:8444
31.22.29.229:6667
31.220.43.15:1080
34.207.196.193:9050
34.219.141.97:1080
35.178.1.101:9999
35.187.7.63:1080
35.224.182.242:10127
35.227.181.237:1080
35.229.65.146:1080
36.226.1.9:1080
36.226.15.220:1080
36.226.4.91:1080
36.227.28.249:1080
36.227.30.247:1080
36.227.31.57:1080
36.227.77.21:1080
36.227.78.49:1080
36.227.82.232:1080
36.227.83.227:1080
36.227.88.143:1080
36.227.90.86:1080
36.66.126.79:9999
36.66.140.207:54862
36.66.253.135:9999
36.67.199.185:6667
36.67.57.165:9999
36.7.172.12:1080
36.89.55.163:9999
36.89.64.115:9999
36.89.89.67:9999
37.144.148.124:9999
37.208.69.147:9050
37.59.56.88:63301
37.59.8.29:1034
37.59.8.29:10692
37.59.8.29:1136
37.59.8.29:12846
37.59.8.29:15339
37.59.8.29:15766
37.59.8.29:16083
37.59.8.29:17760
37.59.8.29:19152
37.59.8.29:19315
37.59.8.29:19571
37.59.8.29:19972
37.59.8.29:22709
37.59.8.29:23202
37.59.8.29:23211
37.59.8.29:23299
37.59.8.29:24511
37.59.8.29:24797
37.59.8.29:25084
37.59.8.29:25181
37.59.8.29:25307
37.59.8.29:2548
37.59.8.29:2573
37.59.8.29:26026
37.59.8.29:26204
37.59.8.29:26804
37.59.8.29:27698
37.59.8.29:28475
37.59.8.29:29945
37.59.8.29:30634
37.59.8.29:3226
37.59.8.29:32822
37.59.8.29:33527
37.59.8.29:33980
37.59.8.29:34133
37.59.8.29:35761
37.59.8.29:35993
37.59.8.29:36082
37.59.8.29:36100
37.59.8.29:36526
37.59.8.29:36762
37.59.8.29:37035
37.59.8.29:38046
37.59.8.29:38335
37.59.8.29:39121
37.59.8.29:39713
37.59.8.29:39867
37.59.8.29:41811
37.59.8.29:42301
37.59.8.29:42704
37.59.8.29:43659
37.59.8.29:43713
37.59.8.29:43878
37.59.8.29:44862
37.59.8.29:44948
37.59.8.29:45941
37.59.8.29:46339
37.59.8.29:47035
37.59.8.29:47108
37.59.8.29:47718
37.59.8.29:48831
37.59.8.29:49758
37.59.8.29:50682
37.59.8.29:53208
37.59.8.29:53637
37.59.8.29:56270
37.59.8.29:56492
37.59.8.29:57608
37.59.8.29:57852
37.59.8.29:59318
37.59.8.29:61996
37.59.8.29:6239
37.59.8.29:62750
37.59.8.29:64043
37.59.8.29:64069
37.59.8.29:6541
37.59.8.29:7016
37.59.8.29:7435
37.59.8.29:8232
37.59.8.29:9749
37.98.112.178:9999
37.98.209.155:9999
38.21.36.19:9999
38.84.132.236:37564
39.105.19.41:1080
39.96.115.70:1080
41.138.241.106:9999
41.139.138.98:9999
41.139.141.254:9999
41.139.45.78:9999
41.161.79.74:9999
41.162.72.2:45183
41.164.31.34:9999
41.180.101.5:9999
41.191.204.146:9999
41.191.204.80:9999
41.191.204.95:9999
41.193.52.57:9999
41.193.52.82:9999
41.203.213.118:9999
41.208.20.50:9999
41.215.143.129:45762
41.216.148.142:9999
41.216.163.46:9999
41.217.219.61:9999
41.217.221.190:9999
41.220.126.50:9999
41.57.108.120:9999
41.66.82.21:9999
41.77.211.194:9999
41.77.23.238:9999
41.78.24.34:9999
41.84.156.46:9999
41.85.184.122:9999
41.90.103.102:9999
41.90.127.182:9999
42.112.20.10:8899
42.112.20.104:8899
42.112.20.114:8899
42.112.20.115:8899
42.112.20.119:8899
42.112.20.120:8899
42.112.20.121:8899
42.112.20.13:8899
42.112.20.15:8899
42.112.20.16:8899
42.112.20.17:8899
42.112.20.18:8899
42.112.20.184:8899
42.112.20.2:8899
42.112.20.20:8899
42.112.20.24:8899
42.112.20.25:8899
42.112.20.28:8899
42.112.20.29:8899
42.112.20.30:8899
42.112.20.31:8899
42.112.20.32:8899
42.112.20.33:8899
42.112.20.41:8899
42.112.20.44:8899
42.112.20.45:8899
42.112.20.49:8899
42.112.20.5:8899
42.112.20.8:8899
42.112.20.81:8899
42.112.20.86:8899
42.112.20.87:8899
42.112.20.88:8899
42.112.20.96:8899
42.112.20.98:8899
42.112.20.99:8899
42.51.195.138:1080
42.51.195.184:1080
42.51.195.217:1080
42.51.216.10:1080
42.51.216.11:1080
42.51.216.3:1080
42.51.216.36:1080
42.51.216.43:1080
42.51.216.5:1080
42.51.217.25:1080
42.51.217.45:1080
42.51.40.114:9999
43.224.8.107:6667
43.224.8.116:6667
43.224.8.121:6667
43.224.8.86:6667
43.229.227.163:1080
43.231.184.32:1080
43.248.187.191:9999
43.248.187.219:9999
43.248.187.97:9999
43.248.191.217:9999
43.248.191.219:9999
43.248.238.131:9999
43.252.199.201:9999
43.254.55.82:1080
43.255.104.111:1080
45.119.83.146:59329
45.239.137.143:9999
45.239.137.221:9999
45.239.137.33:9999
45.33.63.154:6667
45.4.237.18:9999
45.55.66.92:4725
45.63.104.107:10002
45.64.213.114:41803
45.76.206.49:9999
45.76.49.76:8081
45.79.74.207:1080
46.101.174.38:9050
46.101.240.221:1080
46.105.57.149:1034
46.105.57.149:10692
46.105.57.149:1136
46.105.57.149:12846
46.105.57.149:15339
46.105.57.149:15766
46.105.57.149:16083
46.105.57.149:1661
46.105.57.149:17760
46.105.57.149:19152
46.105.57.149:19315
46.105.57.149:19571
46.105.57.149:19972
46.105.57.149:22709
46.105.57.149:23202
46.105.57.149:23211
46.105.57.149:23299
46.105.57.149:24511
46.105.57.149:24797
46.105.57.149:25084
46.105.57.149:25181
46.105.57.149:25307
46.105.57.149:2548
46.105.57.149:2573
46.105.57.149:26026
46.105.57.149:26804
46.105.57.149:27698
46.105.57.149:29945
46.105.57.149:3226
46.105.57.149:32521
46.105.57.149:32822
46.105.57.149:33527
46.105.57.149:33980
46.105.57.149:34133
46.105.57.149:35761
46.105.57.149:35993
46.105.57.149:36082
46.105.57.149:36100
46.105.57.149:36526
46.105.57.149:36695
46.105.57.149:36762
46.105.57.149:37035
46.105.57.149:38046
46.105.57.149:38335
46.105.57.149:39121
46.105.57.149:39713
46.105.57.149:39867
46.105.57.149:41811
46.105.57.149:42301
46.105.57.149:42704
46.105.57.149:43659
46.105.57.149:43713
46.105.57.149:43878
46.105.57.149:44862
46.105.57.149:44948
46.105.57.149:45941
46.105.57.149:46339
46.105.57.149:47108
46.105.57.149:47718
46.105.57.149:48831
46.105.57.149:49758
46.105.57.149:50682
46.105.57.149:53208
46.105.57.149:53637
46.105.57.149:56270
46.105.57.149:56492
46.105.57.149:57608
46.105.57.149:57852
46.105.57.149:59318
46.105.57.149:61996
46.105.57.149:6239
46.105.57.149:62750
46.105.57.149:64043
46.105.57.149:64069
46.105.57.149:6541
46.105.57.149:7016
46.105.57.149:7435
46.105.57.149:7942
46.105.57.149:8232
46.105.57.150:1034
46.105.57.150:10692
46.105.57.150:1136
46.105.57.150:12846
46.105.57.150:15339
46.105.57.150:15766
46.105.57.150:16083
46.105.57.150:1661
46.105.57.150:17760
46.105.57.150:19152
46.105.57.150:19315
46.105.57.150:19571
46.105.57.150:19972
46.105.57.150:22709
46.105.57.150:23202
46.105.57.150:23211
46.105.57.150:23299
46.105.57.150:24511
46.105.57.150:24797
46.105.57.150:25084
46.105.57.150:25181
46.105.57.150:25307
46.105.57.150:2548
46.105.57.150:2573
46.105.57.150:26026
46.105.57.150:26204
46.105.57.150:26804
46.105.57.150:27698
46.105.57.150:28475
46.105.57.150:29945
46.105.57.150:30634
46.105.57.150:3226
46.105.57.150:32521
46.105.57.150:32822
46.105.57.150:33527
46.105.57.150:33980
46.105.57.150:34133
46.105.57.150:35761
46.105.57.150:35993
46.105.57.150:36082
46.105.57.150:36100
46.105.57.150:36526
46.105.57.150:36695
46.105.57.150:36762
46.105.57.150:37035
46.105.57.150:38046
46.105.57.150:38335
46.105.57.150:39121
46.105.57.150:39713
46.105.57.150:39867
46.105.57.150:41811
46.105.57.150:42301
46.105.57.150:42704
46.105.57.150:43659
46.105.57.150:43713
46.105.57.150:43878
46.105.57.150:44862
46.105.57.150:44948
46.105.57.150:45941
46.105.57.150:46339
46.105.57.150:47035
46.105.57.150:47108
46.105.57.150:47718
46.105.57.150:48831
46.105.57.150:49758
46.105.57.150:50682
46.105.57.150:53637
46.105.57.150:56270
46.105.57.150:56492
46.105.57.150:57608
46.105.57.150:59318
46.105.57.150:61996
46.105.57.150:6239
46.105.57.150:62750
46.105.57.150:64043
46.105.57.150:64069
46.105.57.150:6541
46.105.57.150:7016
46.105.57.150:7435
46.105.57.150:7942
46.105.57.150:8232
46.105.57.150:9749
46.146.212.207:9999
46.149.80.207:9999
46.151.199.203:9999
46.164.130.142:9999
46.164.152.114:9999
46.174.57.0:9999
46.181.60.162:80
46.182.133.230:9999
46.187.45.64:9999
46.21.147.219:9999
46.214.146.59:9999
46.214.146.60:9999
46.214.146.61:9999
46.251.58.57:9999
46.255.216.130:1080
46.255.216.148:1080
46.255.216.246:1080
46.36.33.36:9999
46.4.88.203:9050
46.4.88.220:9050
46.99.144.194:9999
47.104.10.11:1080
47.104.128.219:1080
47.105.98.182:1080
47.106.169.89:1080
47.144.192.58:54321
47.52.18.115:1080
47.52.32.253:2016
47.74.186.48:1080
47.88.222.251:1080
47.88.26.87:1080
47.89.22.191:1080
47.90.37.183:9050
47.94.161.216:1080
5.134.124.205:10080
5.134.124.206:10080
5.134.36.42:9999
5.135.104.158:8080
5.135.20.159:8080
5.149.147.118:1080
5.178.61.121:9999
5.196.248.15:8080
5.196.76.41:40043
5.196.76.41:41033
5.196.76.41:41583
5.196.76.41:45515
5.196.76.41:46550
5.196.76.41:48496
5.196.76.41:54635
5.61.24.61:1080
5.8.208.69:9999
50.252.127.53:59445
50.62.31.218:35485
50.62.35.225:25193
50.63.13.254:54631
50.63.13.254:61497
50.63.167.72:12377
50.63.167.72:14933
50.63.167.72:2160
50.63.167.72:21815
50.63.167.72:24120
50.63.167.72:25197
50.63.167.72:26678
50.63.167.72:28003
50.63.167.72:29103
50.63.167.72:30333
50.63.167.72:34124
50.63.167.72:35803
50.63.167.72:36650
50.63.167.72:37902
50.63.167.72:4156
50.63.167.72:47032
50.63.167.72:48171
50.63.167.72:48495
50.76.92.181:54321
51.255.126.115:1080
51.38.17.96:8080
51.38.17.97:8080
52.119.36.69:9999
54.207.79.152:1080
54.36.96.54:1080
58.192.15.134:1080
58.213.45.42:1080
58.252.2.11:9999
58.32.254.125:7070
58.35.143.237:1080
58.35.68.81:1080
58.82.243.6:9999
59.100.25.172:9999
59.126.48.8:30035
59.126.48.8:30047
59.126.48.8:30048
59.126.48.8:30061
59.145.153.101:1080
59.152.103.58:9999
59.66.100.17:1080
59.78.1.177:1080
59.78.13.31:1080
59.78.35.129:1080
60.10.193.73:1080
60.175.7.78:1080
60.224.118.119:9999
61.139.140.32:1080
61.147.71.104:9999
61.147.71.115:9999
61.147.71.116:9999
61.147.71.119:9999
61.147.71.12:9999
61.147.71.126:9999
61.147.71.141:9999
61.147.71.21:9999
61.147.71.28:9999
61.147.71.32:9999
61.147.71.35:9999
61.147.71.48:9999
61.147.71.61:9999
61.147.71.62:9999
61.147.71.63:9999
61.147.71.65:9999
61.147.71.69:9999
61.147.71.72:9999
61.147.71.75:9999
61.147.71.8:9999
61.147.71.81:9999
61.147.71.86:9999
61.147.71.97:9999
61.147.73.104:9999
61.147.73.113:9999
61.147.73.118:9999
61.147.73.13:9999
61.147.73.131:9999
61.147.73.133:9999
61.147.73.137:9999
61.147.73.14:9999
61.147.73.17:9999
61.147.73.23:9999
61.147.73.29:9999
61.147.73.42:9999
61.147.73.54:9999
61.147.73.67:9999
61.147.73.84:9999
61.147.73.9:9999
61.147.73.92:9999
61.147.73.99:9999
61.147.91.10:9999
61.147.91.104:9999
61.147.91.105:9999
61.147.91.106:9999
61.147.91.122:9999
61.147.91.125:9999
61.147.91.2:9999
61.147.91.24:9999
61.147.91.28:9999
61.147.91.37:9999
61.147.91.40:9999
61.147.91.7:9999
61.147.91.86:9999
61.224.176.145:1080
61.224.177.53:1080
61.224.180.178:1080
61.224.183.163:1080
61.224.186.194:1080
61.224.186.244:1080
61.224.188.168:1080
61.224.189.10:1080
61.224.191.192:1080
61.227.152.48:1080
61.228.183.231:1080
61.228.214.19:1080
61.228.214.242:1080
61.228.214.35:1080
61.228.215.154:1080
61.228.215.62:1080
61.228.216.1:1080
61.228.216.43:1080
61.228.216.82:1080
61.230.21.228:1080
61.231.164.170:1080
61.231.176.223:1080
61.231.176.61:1080
61.231.177.154:1080
61.231.180.167:1080
61.231.180.35:1080
61.244.208.78:8080
61.41.9.213:10081
61.41.9.213:1081
61.62.186.34:1080
61.8.75.186:1080
61.82.156.236:1080
62.133.130.62:9999
62.145.99.178:9999
62.152.191.154:9999
62.201.210.134:9999
62.238.232.178:9999
62.24.99.7:9999
62.69.229.253:9999
62.77.130.47:45605
63.134.132.71:39880
63.96.44.151:9999
64.222.96.122:64312
65.111.166.37:1080
65.173.110.234:9999
65.38.222.162:9999
65.51.167.74:7942
66.112.61.130:54321
66.116.91.18:57264
66.154.121.1:36257
66.232.198.132:64312
66.38.80.188:35128
66.60.122.230:9999
66.63.186.169:64337
66.96.238.191:9999
67.14.216.84:39880
67.165.205.83:60041
67.206.206.138:9999
67.213.235.184:54452
67.215.235.97:20320
67.8.50.166:9999
68.157.161.124:9999
68.157.161.125:9999
68.157.161.126:9999
68.170.81.122:26633
68.188.138.192:9999
69.132.153.32:40813
69.145.139.25:39880
69.206.51.199:55469
69.24.197.118:9999
70.166.38.71:24801
70.166.38.80:1080
70.166.38.80:24822
70.166.38.93:24827
70.168.93.201:17009
70.168.93.218:1080
70.36.250.7:64312
70.82.156.40:9999
72.11.148.222:56533
72.205.70.231:1080
72.205.70.231:13626
72.205.70.253:1080
72.250.37.184:9999
72.252.4.82:53708
72.45.33.37:64312
72.49.49.11:31034
72.55.229.126:10200
73.164.131.42:52873
74.115.25.72:1080
74.116.56.35:9999
74.123.21.22:12288
74.126.37.72:9999
74.143.136.6:9999
74.195.17.110:52992
74.56.151.194:44037
74.70.67.218:51888
74.83.246.105:39593
75.160.63.85:9999
75.176.232.154:40480
76.76.192.58:9999
76.80.61.98:44411
77.104.65.46:1080
77.108.238.126:39880
77.138.123.51:9999
77.222.143.118:9999
77.232.167.238:9999
77.232.167.241:9999
77.91.120.19:9999
77.95.217.31:1080
78.159.79.245:9999
78.187.10.145:9999
78.187.100.171:9999
78.251.218.80:9050
78.30.208.154:9999
78.37.27.139:9999
78.46.77.165:10080
78.47.225.59:9050
78.94.172.42:1080
79.104.45.234:9999
79.106.133.123:1080
79.110.192.132:9999
79.129.27.154:9999
79.143.121.185:13878
80.11.200.161:9999
80.122.10.110:9999
80.211.30.20:9050
80.229.208.243:9999
80.242.55.103:39880
80.253.237.180:9999
80.78.75.170:1080
80.82.58.6:9999
81.165.241.190:9999
81.2.248.170:1080
81.201.61.158:9999
81.248.141.174:19257
82.117.246.8:9999
82.135.198.152:9999
82.139.182.152:1080
82.196.10.131:1080
82.196.3.21:10080
82.202.163.163:1080
82.207.56.146:9999
82.232.97.170:27184
82.64.31.119:1080
83.149.198.196:1080
83.221.222.86:3130
84.232.236.155:9999
84.232.255.58:9999
84.54.180.6:9999
85.105.205.198:1080
85.105.213.27:9999
85.143.249.33:56893
85.152.13.7:13104
85.172.4.246:9999
85.192.154.123:1080
85.221.215.202:30500
85.238.167.170:9999
85.30.217.8:48332
85.70.226.199:9999
85.93.153.54:9999
86.51.153.82:9999
87.206.175.57:9999
87.227.136.62:9999
87.228.77.58:9999
87.229.207.118:9999
87.236.46.8:9999
87.238.175.54:9999
87.244.231.64:39880
87.247.19.126:9999
88.147.17.12:37344
88.204.218.150:9999
88.220.122.198:39880
88.255.185.212:9050
88.255.185.216:9050
88.81.72.240:9999
88.87.70.84:9999
88.99.14.147:24722
88.99.192.97:11675
88.99.192.97:13349
88.99.192.97:13523
88.99.192.97:13817
88.99.192.97:14095
88.99.192.97:14204
88.99.192.97:14225
88.99.192.97:14281
88.99.192.97:14384
88.99.192.97:14483
88.99.192.97:14530
88.99.192.97:14972
88.99.192.97:15040
88.99.192.97:15050
88.99.192.97:15052
88.99.192.97:15129
88.99.192.97:16353
88.99.192.97:16365
88.99.192.97:16489
88.99.192.97:16568
88.99.192.97:16584
88.99.192.97:16637
88.99.192.97:16673
88.99.192.97:16823
88.99.192.97:16856
88.99.192.97:16879
88.99.192.97:16917
88.99.192.97:1992
88.99.192.97:21986
88.99.192.97:2367
88.99.192.97:27924
88.99.192.97:28937
88.99.192.97:3032
88.99.192.97:3654
88.99.192.97:8457
88.99.23.226:10080
89.105.153.245:9999
89.117.235.25:39880
89.122.148.121:9999
89.132.225.100:9999
89.175.182.43:9999
89.190.120.21:50385
89.216.22.8:9999
89.22.174.163:9999
89.221.85.98:9999
89.232.58.169:9999
89.37.56.138:42751
89.40.121.174:1080
89.43.18.9:9999
90.231.72.5:9050
91.107.117.134:9999
91.121.45.22:9999
91.143.172.93:54178
91.196.151.150:9999
91.200.0.68:9999
91.206.30.205:3129
91.230.9.146:9999
92.222.205.211:8080
92.222.252.50:10080
92.244.223.236:9999
92.245.163.245:9999
92.62.72.23:9999
93.113.183.143:9999
93.117.72.27:49617
93.118.197.90:9999
93.153.95.186:9999
93.159.188.250:9999
93.171.242.179:9999
93.179.249.205:9999
93.39.184.110:7586
93.63.147.2:9999
93.63.183.114:9999
93.73.51.181:9999
94.112.50.85:60474
94.131.204.196:61298
94.140.253.57:9999
94.153.197.90:9999
94.153.223.210:9999
94.156.189.12:9050
94.231.165.71:9999
94.240.21.212:47661
94.243.219.122:44093
95.104.54.227:9999
95.110.186.48:10103
95.110.194.245:37949
95.110.207.71:11348
95.110.207.71:54983
95.110.227.5:49971
95.110.227.5:50459
95.110.227.5:50538
95.110.227.5:53344
95.110.227.5:53773
95.110.227.5:56213
95.110.227.5:56221
95.110.227.5:56322
95.110.227.5:57201
95.110.227.5:60641
95.110.227.5:63255
95.110.228.190:8975
95.110.230.142:53366
95.111.124.24:9999
95.141.130.122:9999
95.154.104.39:9999
95.156.102.34:9999
95.158.40.181:9999
95.158.45.137:9999
95.159.106.30:6667
95.161.212.210:31542
95.168.204.15:10080
95.169.115.41:9999
95.169.115.43:9999
95.172.47.199:9999
95.216.140.220:1080
95.216.151.165:1080
95.216.162.51:1080
95.28.86.109:9999
95.31.138.73:1080
95.43.220.156:9999
95.46.153.20:9999
95.47.61.236:61377
95.52.224.237:9999
95.6.97.178:35366
95.80.200.22:9999
96.44.133.110:58690
96.44.183.149:55225
96.74.120.202:9999
96.87.7.113:64312
96.88.30.253:9999
96.9.80.62:9999
97.74.230.16:36446
97.74.230.16:44951
97.74.230.16:7011
97.89.80.43:52218
98.143.145.29:62354
98.143.145.30:62353
98.162.25.29:1080
98.162.25.29:31679
98.162.25.7:1080
98.172.253.157:1080
98.172.253.157:40753
98.174.90.36:1080
98.174.90.36:14474
98.181.99.197:10368
99.158.26.233:45571
